[
  "file-explorer",
  "global-search",
  "switcher",
  "graph",
  "backlink",
  "outgoing-link",
  "tag-pane",
  "page-preview",
  "templates",
  "note-composer",
  "command-palette",
  "slash-command",
  "starred",
  "markdown-importer",
  "outline",
  "slides",
  "open-with-default-app",
  "workspaces",
  "file-recovery",
  "sync"
]