{
  "recentFiles": [
    {
      "basename": "2022-03-28",
      "path": "Journal/Daily/2022-03-28.md"
    },
    {
      "basename": "2022-03-27",
      "path": "Journal/Daily/2022-03-27.md"
    },
    {
      "basename": "Makrdown Example",
      "path": "Makrdown Example.md"
    },
    {
      "basename": "( 2022-03-03 OSI Model Overview",
      "path": "( 2022-03-03 OSI Model Overview.md"
    },
    {
      "basename": "TODO",
      "path": "Z/TODO.md"
    },
    {
      "basename": "Code Level",
      "path": "Code Level.md"
    },
    {
      "basename": "Authentication, Authorization, and Accounting",
      "path": "Authentication, Authorization, and Accounting.md"
    },
    {
      "basename": "INDEX",
      "path": "Z/INDEX.md"
    },
    {
      "basename": "Tag Taxonomy",
      "path": "Z/Tag Taxonomy.md"
    },
    {
      "basename": "weekly",
      "path": "Templates/Temporal/weekly.md"
    },
    {
      "basename": "Person",
      "path": "Templates/Inputs/Person.md"
    },
    {
      "basename": "2022-03-26",
      "path": "Journal/Daily/2022-03-26.md"
    },
    {
      "basename": "+ SANS Moving Past Googling It OSINT",
      "path": "+ SANS Moving Past Googling It OSINT.md"
    },
    {
      "basename": "( Report Writing",
      "path": "( Report Writing.md"
    },
    {
      "basename": "Access Control List",
      "path": "Access Control List.md"
    },
    {
      "basename": "CyberSec",
      "path": "CyberSec.md"
    },
    {
      "basename": "Hacking",
      "path": "Templates/Inputs/Hacking.md"
    },
    {
      "basename": "♻️ Flows",
      "path": "Utility/♻️ Flows.md"
    },
    {
      "basename": "✏️ Workbench",
      "path": "Utility/✏️ Workbench.md"
    },
    {
      "basename": "💳️ Kanban Live",
      "path": "Utility/💳️ Kanban Live.md"
    },
    {
      "basename": "📊️ Dashboard",
      "path": "Utility/📊️ Dashboard.md"
    },
    {
      "basename": "🔌️ Plugins",
      "path": "Utility/🔌️ Plugins.md"
    },
    {
      "basename": "🕓️ Timeline",
      "path": "Utility/🕓️ Timeline.md"
    },
    {
      "basename": "🧠️ Back of Mind",
      "path": "Utility/🧠️ Back of Mind.md"
    },
    {
      "basename": "🧠️ Top of Mind",
      "path": "Utility/🧠️ Top of Mind.md"
    },
    {
      "basename": "🛠️ Tools",
      "path": "Utility/🛠️ Tools.md"
    },
    {
      "basename": "Annual Note",
      "path": "Templates/Temporal/Annual Note.md"
    },
    {
      "basename": "Daily",
      "path": "Templates/Temporal/Daily.md"
    },
    {
      "basename": "Date",
      "path": "Templates/Temporal/Date.md"
    },
    {
      "basename": "monthly",
      "path": "Templates/Temporal/monthly.md"
    },
    {
      "basename": "Now",
      "path": "Templates/Temporal/Now.md"
    },
    {
      "basename": "time",
      "path": "Templates/Temporal/time.md"
    },
    {
      "basename": "Today",
      "path": "Templates/Temporal/Today.md"
    },
    {
      "basename": "Airr Quote",
      "path": "Templates/Inputs/Airr Quote.md"
    },
    {
      "basename": "Article",
      "path": "Templates/Inputs/Article.md"
    },
    {
      "basename": "Book",
      "path": "Templates/Inputs/Book.md"
    },
    {
      "basename": "New",
      "path": "Templates/Inputs/New.md"
    },
    {
      "basename": "OSINT",
      "path": "Templates/Inputs/OSINT.md"
    },
    {
      "basename": "Paper",
      "path": "Templates/Inputs/Paper.md"
    },
    {
      "basename": "Thought",
      "path": "Templates/Inputs/Thought.md"
    },
    {
      "basename": "Tweet",
      "path": "Templates/Inputs/Tweet.md"
    },
    {
      "basename": "Youtube",
      "path": "Templates/Inputs/Youtube.md"
    },
    {
      "basename": "+  Putins-Russia-Ukraine-Invastion",
      "path": "+  Putins-Russia-Ukraine-Invastion.md"
    },
    {
      "basename": "Meta",
      "path": "Templates/Meta.md"
    },
    {
      "basename": "ABC",
      "path": "Templates/ABC.md"
    },
    {
      "basename": "comment",
      "path": "Templates/comment.md"
    }
  ],
  "omittedPaths": [],
  "maxLength": null
}